:) 
:] 
:} 
:o) 
:o] 
:o}
:-] 
:-) 
:-} 
=) 
=] 
=}
=^] 
=^) 
=^} 
:B 
:-D 
:-B
:^D 
:^B 
=B 
=^B 
=^D 
:')
:'] 
:'} 
=') 
='] 
='} 
<3
</3
^.^ 
^-^ 
^_^ 
^^ 
:* 
=*
:-* 
;) 
;] 
;} 
:-p 
:-P
:-b 
:^p 
:^P 
:^b 
=P
=p 
\o/
\o\ 
/o/ 
:P 
:p 
:b 
=b
=^p 
=^P 
=^b 