[I,want,togo,home,:,-lrb-]
[administration,do,not,really,know,what,its,diplomatic,strategy,will,be,',Bolton,on,Obama,-lrb-,video,-rrb-,:,jus,.]
[.]
[http://bit.ly/13t2w2]
[Blogged,mechanical,engineer,at,Erie,Personnel,-lrb-,Ft,Erie,,,ON,-rrb-,:,-,http://tinyurl.com/kvotxr]
[i,can,feel,that,my,dark,eye,ring,be,get,darker,and,darker,now,.]
[i,mean,processing,right,now,!]
[argh,:,-lrb-]
[Eric,Fortune,:,``,daughter,of,we,nature,'',-,Alure,:,zou,post,a,new,favorite,picture,-lrb-,via,-rrb-,:,http://bit.ly/bechr]
[@jasonm314,wow,!]
[nice,one,on,the,not,smoking,!!!]
[I,be,too,addict,to,quit,!]
[:,-,-lrb-]
[sit,next,cute,little,toddler,on,the,subway,always,put,I,in,a,good,mood,...,but,now,I,miss,my,niece,and,nephew,:,-lrb-]
[full,link,here,,,such,a,cute,puppy,!]
[if,Idid,not,live,in,a,condo,,,i,would,take,she,:-rrb-,rt,@bobbibillard,http://www.adoptapet.com/pet2818437.html]
[solve,the,multitasking,and,battery,dilemma,of,iphone,by,put,a,SIM,in,my,3g,and,use,it,in,parallel,with,my,3gs,-lrb-,sync,via,mobileme,-rrb-,:,-,p]
[Haha,!]
[that,be,funy,!!!!]
[:-rrb-,rt,@melsie75,:,@jordanknight,yay,!]
[I,feel,like,I,just,experience,the,second,come,of,Jesus,!!!!!]
[Photo,:,-lrb-,via,fuckyeahhappy,-rrb-,awwwww,:,õddd,http://tumblr.com/xue2tnt0q]
[this,Article,be,recently,update,on,APlusSites.com,:,-lrb-,http://bit.ly/4xkgfb,-rrb-]
[good,luck,!]
[rt,@dogspelledfwd,.]
[@troubledpaws,Prob,be,,,if,some1,post,it,,,NGC,wld,go,after,it,4,copyright,infrigement.i,be,work,on,it]
[#florida,#events,the,Reid,Report,|,Coulter,diss,Kathleen,Parker,-lrb-,and,Florida,,,too,-rrb-,:,in,the,too,.]
[.]
[http://bit.ly/xmxss]
[I,think,my,scalp,be,sunburned,:-lrb-,interesting,,,consider,I,have,not,be,outside,today,.]
[fucking,bull,if,you,ask,I,...,OWWWIEEE]
[@dandebuf,yeah,hit,I,up,tomorrow,.]
[i,be,hungry,now,:-lrb-,will,be,good,to,see,ryan,too,.]
[http://twitpic.com/c2j19,-,the,blender,at,Gramercy,on,a,sad,sad,day,:,-lrb-]
[not,@,school,:-lrb-,,,cause,I,be,sick,--,for,rillz,.]
[:|,I,can,not,believe,it,either]
[@mattchewcorpuz,because,I,always,mess,this,up,:,-lrb-]
[Iceland,debt,repayment,could,affect,European,Union,bid,:,-lrb-,STOCKHOLM,-rrb-,Iceland,be,struggle,to,make,amends,on,a,hu,.]
[.]
[http://bit.ly/xqjjv]
[happy,time,/,/,Tim,Buckley,ft,Danny,Thompson,on,bass,:,http://bit.ly/16wa8,-,DT,shed,a,tear,show,I,this,the,other,day,:,-lrb-]
[Part,Closure,-lrb-,Bakerloo,-rrb-,:,Thursday,27,until,Sunday,30,August,,,inclusive,,,suspend,between,Paddington,and,Elephan,.]
[.]
[http://bit.ly/291kvo]
[SanctuaryNews,:,Sanctuary,'s,new,plan,unveil,-lrb-,the,Alpena,News,-rrb-,:,Thunder,Bay,National,Marine,Sanctu,.]
[.]
[http://bit.ly/18wfz8]
[Shit,.]
[forget,to,restore,dorry,'s,food,when,i,go,out,.]
[:-lrb-,so,guilty,now,!]
[:,-lrb-]
[just,drop,Alicia,off,at,the,airport,--,what,to,do,with,myself,until,Sunday,?]
[oh,ya,,,homework,...,:,-lrb-]
[@kuuipo1207,be,they,pigment,good,???]
[i,dont,have,any,occ,stuff,yet,:,-lrb-]
[whee,,,just,uselessly,bike,back,and,forth,between,Voorhout,,,turn,out,I,do,not,have,to,work,until,12:30,.]
[could,have,sleep,in,...,:,-lrb-]
[on,the,way,to,the,footy,to,see,the,bomber,thrash,the,hawk,!]
[-lrb-,hopefully,-rrb-,:,s]
[ih,industry,news,:,customer,back,ammonia-treated,beef,after,report,-lrb-,ap,-rrb-,:,Restaurant,chain,and,.]
[.]
[http://bit.ly/7qmrog]
[@lovatonerd,aw,:-LRB-,Well,in,my,state,it,be,part,of,a,kid,'s,book,competition,,,so,that,be,probably,why,...]
[Photo,:,-lrb-,via,satelliteofyou,-rrb-,http://tumblr.com/xcr2yxf1g]
[and,i,never,see,you,on,my,online,friend,:,-lrb-]
[@funkyheff,I,have,no,marketable,skill,.]
[:,-lrb-]
[@deestillballin,'s,NBA,rant,-lrb-,Kobe,Bryant,-rrb-,:,http://iwillblogforsanity.squarespace.com/sports/2009/12/28/dees-corner-my-nba-rant.html]
[rt,@rosiehep,:,national,asthma,campaign,star,Stacey,Solomon,.]
[rt,LOVE,IT,!!]
[.]
[LeeConti,#bb,10,I,expect,there,to,be,a,massive,reduction,in,new,bear,baby,name,Beatrice,for,a,number,of,year,to,come,.]
[.]
[terrible,sport,weekend,...]
[vt,and,Eagles,lose,.]
[unbelievable,:,-lrb-]
[on,bebo,and,i,have,no,more,love,to,giv,out,:,-lrb-]
[I,hate,be,sick,its,gay,.]
[:,-lrb-]
[@vickiheyworth,you,be,right,.]
[maybe,the,perfect,costume,be,in,the,closet,.]
[I,want,a,wig,though,.]
[:,-lrb-]
[Microsoft,have,found,the,cheapest,meal,in,America,-lrb-,or,be,just,cheap,-rrb-,:,so,,,maybe,you,hear,about,Microsoft,'s,newe,.]
[.]
[http://tinyurl.com/lfa9qy]
[***,good,personal,assitant,its,need,***,-lrb-,sanfrancisco-usa,-rrb-,:,I,need,person,that,can,be,trust,and,also,person,that,.]
[.]
[http://bit.ly/crnkh]
[no,more,allowance,,,damn,red,mango,!]
[damn,tattoo.,:-lrb-,how,will,i,eat,?]
[Dude,i,seriously,feel,bad,and,sad,for,that,lady,who,get,the,swine,flu,shot,and,trigger,something,to,fuck,she,up,:-lrb-,who,hear,bout,this,?]
[Photo,:,-lrb-,via,carok,-rrb-,http://tumblr.com/xax2vsfiu]
[Photo,:,try,and,test,.]
[the,real,sis,&,bro,imisss,:-lrb-,http://tumblr.com/xsp2rh29d]
[@supxhero,what,be,uppp,?]
[:,-lrb-]
[@tamster1328,hi,.]
[I,be,Lisa,.]
[I,can,not,listen,to,the,cell,cast,.]
[:,-lrb-]
[#taiwanfloods,over,600,-lsb-,miss,-rsb-,as,report,in,the,US,-lrb-,NBC,Nightly,news,-rrb-,.]
[:-lrb-,-lrb-,via,@photojazz,-rrb-]
[iMafia,Chicago,5,PlayMesh,Points,-lrb-,1.7,-rrb-,:,iMafia,Chicago,5,PlayMesh,Points,-lrb-,1.7,-rrb-,PlayMesh,Category,:,Games,Price,:,$,.]
[.]
[http://tinyurl.com/mh3evf]
[rt,@manmademoon,:,what,be,the,traditional,pastime,for,a,labor,day,weekend,?]
[I,intend,to,lay,on,my,back,,,breathe,rapidly,and,push,for,72,hour,.]
[@msruntheus,for,the,big,run,.]
[how,be,you,?]
[I,see,you,plan,route,.]
[very,exciting,!]
[I,need,to,email,you,.]
[Super,busy,last,couple,of,day,:,-lrb-]
[nofont,-lrb-,freeware,-rrb-,:,will,minimize,the,size,of,the,HTM,file,generate,by,Excel,http://bit.ly/4l1tmr]
[New,:,:,-lrb-,http://bit.ly/2976w9,-rrb-,http://bit.ly/2976w9]
[seriously,wish,I,be,not,at,work,right,now,.]
[I,just,want,bed,,,the,Smiths,,,strawberry,and,sleep,:,-lrb-]
[its,depressing,to,watch,my,bank,account,get,smaller,and,never,bigger,:-lrb-,I,need,to,get,a,job,soon,!]
[rt,@mashable,nprõs,iPhone,App,blow,other,News,Apps,out,of,the,water,-,http://bit.ly/4cpxde]
[do,not,cry,honey,,,i,miss,you,too,:,-lrb-]
[airport,tomorrow,morning,,,can,not,wait,,,i,get,to,see,my,japanese,host,student,,,i,miss,she,!]
[:,-lrb-]
[Seattle,bank,teller,chase,robber,,,lose,job,-lrb-,ap,-rrb-,:,ap,-,a,Seattle,bank,teller,have,lose,he,job,because,he,run,.]
[.]
[http://bit.ly/c346z]
[my,boyfriend,officially,ban,I,from,take,space,trip,:,-lrb-]
[@EmmaLBishop,usually,by,this,point,I,be,feel,slightly,more,human,,,but,I,feel,the,same,,,I,just,wan,na,stop,shake,:,-lrb-]
[what,do,i,have,to,do,?]
[...,:,-lrb-]
[I,be,at,the,Cinemar,*,all,by,myselfffffff,*,.]
[I,miss,you,:-lrb-,x]
[wow,!]
[Got,transfer,to,a,specialist,and,find,out,I,get,a,wisdom,tooth,:-lrb-,wtf,!]
[fml]
[-lrb-,860,-rrb-,:,oh,my,god,.]
[oh,my,god,.]
[oh,my,god,.]
[I,drunk,email,a,professor,on,friday,.]
[oh,my,god,.]
[oh,my,god,.]
[I,think,my,tummy,be,talk,.]
[.,-rrb-]
[:]
[Gon,na,be,a,busy,day,.]
[*,faceplant,*,I,be,so,tired,...,can,not,I,go,back,to,bed,?]
[:,-lrb-]
[@oritsuru,I,can,not,play,the,ps2,one,on,my,PS3,'cause,i,only,get,it,in,February,:,-lrb-]
[@fineicave,I,know,.]
[I,just,like,the,headline,.]
[never,get,to,read,the,actual,article,...,:,-lrb-]
[I,think,i,have,a,sleep,disorder,:,-lrb-]
[#burnnotice,1x05,-lrb-,Family,Business,-rrb-,:,Michael,need,he,top,con,to,outsmart,arm,dealer,http://tinyurl.com/lrub3z,-lrb-,recap/quotes,-rrb-]
[just,realize,I,have,not,ridden,motorcycle,in,week,:,-lrb-]
[rt,@shocklee,:,#ff,info,head,!]
[@iammusiq101,@konkretejungle,@torrenceg,@wayneandwax,@jeremymeyers,@djpriority,@themidnightace,@blokgolf]
[@joelyyoung,I,miss,u,too,:-lrb-,spesh,we,laughin,fit,for,no,reason,hahahaha,.]
[@mitchy1441,Chocolate,&,Cheesecake,?]
[Hmmm,.]
[.]
[just,do,not,let,he,try,to,gargle,the,peanut,butter,...,I,have,try,...,it,just,do,not,work,out,:,-lrb-]
[dis,walkin,shit,be,gay,.]
[I,think,i,find,the,guy,whose,bike,seat,get,switch,with,mine,,,leave,he,a,note,.]
[my,chest,hurt,:,-lrb-]
[*,file.c,-lrb-,rb_str_encode_ospath,-rrb-,:,no,more,gurantee,that,the,return,string,be,...,:,commit,by,usa,:,:,r25347,/,bran,.]
[.]
[http://bit.ly/mw3uy]
[New,@,PDS,Video,:,wiz,Khalifa,Ð,hello,Kitty,-lrb-,on,the,pill,-rrb-,:,this,joint,knock,,,iõma,have,t.,.]
[http://bit.ly/3dqsyo]
[Photo,:,-lrb-,via,dbaldwin,-rrb-,http://tumblr.com/xih3m9xsn]
[rt,@freshyaboybozz,Yo,if,u,really,lisen,to,kanye,verse,on,``,forever,'',he,verse,be,da,most,lyircal,-lrb-,dam,right,.]
[Nigga,rap,da,game,-rrb-]
[join,I,at,Linkedin,Ester,Kanowitz,have,a,update,profile,-lrb-,experience,-rrb-,:,Ester,Kanowitz,have,a,update,profile,:,...,http://bit.ly/4jr1jm]
[@ktbuns,lol,well,at,least,we,will,not,be,alone,in,we,mullet,way,also,I,need,to,get,mine,cut,I,think,that,might,be,the,problem,:,-lrb-]
[say,HAPPY,FRIDAY,!!]
[I,want,to,drown,my,motorcycle,problem,with,yarn,,,however,,,I,spend,too,much,on,part,.]
[:-lrb-,...,http://plurk.com/p/1d0o64]
[my,Grandma,pass,away,today,.]
[:-lrb-,R.I.P.,Lorraine,Humbracht,you,be,a,great,woman,and,fantastic,Grandma,.]
[@rdangelz,I,do,not,!]
[:,-lrb-]
[@essteeyou,can,not,really,.]
[will,tough,it,out,but,cancel,on,Chloe,.]
[ca,not,bear,the,thought,of,sniffle,and,feel,shitty,through,a,film,:,-lrb-]
[@chariberri,i,know,.]
[watch,its,gon,na,turn,out,to,be,nothin,.]
[:-lrb-,it,better,be,somethin,...]
[Job,:,medication,aide,coordinatorm,Tech,-,-lrb-,Lake,Mary,,,fl,-rrb-,:,http://twurl.nl/psdg5n]
[@happyhwife,yeah,,,I,think,you,will,miss,it,.]
[it,make,I,sad,how,fast,he,be,grow,up,!]
[:,-lrb-]
[@ririardana,i,would,love,to,!]
[but,my,budget,be,not,enough,,,i,be,use,ma,own,money,!]
[:,-lrb-]
[@alizegel,i,cant,i,buy,my,book,last,night,and,now,have,natta,in,the,bank,till,i,start,work,:,-lrb-]
[@kentruff,I,can,not,help,the,way,I,look,:-lrb-,LOL]
[Got,emotional,at,the,Children,'s,War,exhibit,.]
[Esp,at,the,sinking,of,City,of,Benares,ship,with,the,loss,of,77,child,evacuee,.]
[heartbreaking,:,-lrb-]
[what,be,the,psychology,of,you,Prospect,?]
[a,Million,Dollar,Question,:,-lrb-,video,-rrb-,http://ow.ly/iglz]
[ughh,...,tummy,hurt,:-lrb-,on,a,better,note,the,America,'s,most,want,tour,=,2morrow,then,Cedar,Point,be,on,Friday,<,3]
[I,have,get,a,fantastic,headache,:-lrb-,time,to,sleep,I,think,.]
[Night,everyone]
[sit,at,indoor,soccer,facility,bum,I,out,.]
[.]
[remind,of,my,past,.]
[.]
[:,-lrb-,.]
[Miss,playing,.]
[-,http://rubyurl.com/j9zi]
[@heycassadee,http://twitpic.com/cptac,-,omg,i,have,that,bracelet,but,in,pink,!]
[it,kinda,die,:,-lrb-]
[the,street,sign,look,like,they,be,go,to,get,rip,off,,,that,be,how,strong,the,wind,be,:,-lrb-]
[#,566,-,Entwickler,Microsoft,Office,SharePoint,server,-lrb-,m/w,-rrb-,:,#,566,-,Entwickler,Microsoft,Office,SharePoint,server,.]
[.]
[http://bit.ly/16puyj]
[rt,@priyankawriting,who,be,go,for,flag,hoisitng,tomorow,for,#india,??]
[@tommcfly,please,say,hello,to,my,,,i,need,this,,,make,I,happy,today,xxxx,eu,te,amo,-rrb-,:,11]
[wait,for,the,school,bus,.]
[:,-lrb-]
[:-lrb-,leg,hurt,and,i,need,a,new,chair,to,sit,in,for,rock,band]
[@therezzza,I,be,not,ignore,you,!!!!!]
[:-lrb-,you,say,west10,be,not,show,the,proposal,so,I,assume,we,be,not,go,anymore,.]
[.]
[rt,-,Scouting,Report,:,ROME,http://tinyurl.com/nl7oxn]
[@kindasleepy,that,be,shitty,:-lrb-,I,be,a,chubby,butt,so,I,know,the,feeling,but,just,get,ta,ignore,the,surraounding,and,concentrate,on,the,goal,!]
[I,think,grammar,should,matter,whenever/however,you,communicate,?]
[I,know,,,there,be,so,many,now,who,do,not,use,it,.]
[:-lrb-,@buttercupd]
[the,HTC,Hero,White,include,a,wealth,...,-,pitchengine,-lrb-,press,release,-rrb-,:,the,HTC,Hero,White,include,a,wealth,of,.]
[.]
[http://bit.ly/yg5ug]
[I,can,not,get,out,of,bed,:,-lrb-]
[``,we,work,hard,and,sleep,less,...,we,be,underpaid,...,we,lack,holiday,...,we,dont,have,social,life,&,real,home,...,'',...,in,pusuit,of,a,phd,_,:,-lrb-]
[grr,.]
[she,drop,she,phone,on,my,head,:,-lrb-]
[@antwun,.]
[.]
[Yea,.]
[nd,my,simcard,be,sumwhr,dnt,knw,whre,!!]
[:-lrb-,too,tired,il,gve,it,lata]
[@penis_flytrap,only,the,lady,:-lrb-,lol]
[@havoc1108,@johnny559,@drairrick,hey,fuck,Isaiah,right,??]
[he,should,not,get,a,invite,...,no,he,do,not,.]
[pshhh,and,to,think,I,have,friend,.]
[:-lrb-,-lrb-]
[rt,@asher_ashy,I,hate,WEN,YU,LIKE,SUMBODY,N,DEY,DNT,LIKE,YU,BAQ,.]
[.]
[BUT,DEN,MONTHS,L8R,DEY,see,YU,N,WANT,YU,.]
[.]
[BUT,YU,DNT,WANT,dem,.]
[.]
[like,wtff,.]
[*,ahem,*,@montreat,http://www.wireless.att.com/learn/why/3gmicrocell,yes,,,I,know,it,only,support,up,to,4,user,:,-lrb-]
[@blueturnsred,http://twitpic.com/79m06,-,awww,.]
[i,be,so,sorry,baby,:,-lrb-]
[just,wake,up,a,bit,ago,.]
[my,mouth,be,still,very,sore,.]
[wait,to,get,a,call,back,from,the,dentist,'s,office,.]
[:,-lrb-]
[I,also,have,a,headache,@katecooperowen,and,have,also,just,be,sick,at,work,:,-lrb-]
[Technology,hate,I,.]
[third,time,this,week,i,get,ta,take,my,laptop,to,the,tech,>,:,-lrb-]
[@calevans,it,be,not,just,you,...,I,feel,like,I,be,chase,my,own,tail,.]
[:-lrb-,Know,the,feeling,?]
[yup,,,so,the,Orphan,,,be,wak,as,fuck,,,just,find,out,.]
[:,-lrb-]
[@guido38,I,have,to,get,rid,of,the,pupp,:,-lrb-]
[@jaxsk,I,hate,spam,follower,so,much,!]
[and,how,it,look,like,its,go,to,rain,again,:-lrb-,http://myloc.me/olds]
[I,be,not,feel,the,love,at,all,:,-,-lrb-]
[@deepndistant,I,do,not,see,ANYTHING,,,and,I,be,out,at,midnight,and,again,at,4,...,:,-lrb-]
[Mel,Helitzer,:,teacher,,,Mentor,,,comic,-lrb-,Prof.,Hodson,-rrb-,:,if,I,have,he,cleverness,,,I,would,start,this,tribute,with,a,.]
[.]
[http://bit.ly/40fsy]
[@littleliverbird,the,tooth,any,better,...,nothing,worse,:--lrb-,...]
[@musicgirl988,what,be,happen,to,you,blog,?]
[i,be,helpless,:,-lrb-]
[will,have,she,new,look,later,.]
[pfshhh,.]
[-lrb-,kinakabahan,ako,-rrb-,:|,http://plurk.com/p/35b460]
[@myprivatemuse,yuppp,:,-lrb-]
[fiddle,with,my,blog,post,:,-lrb-,http://bit.ly/2rldfd,-rrb-]
[Revision,990,:,-lrb-,classic,-rrb-,remove,a,couple,more,unused,variable,http://bit.ly/8muqt]
[&,4:03,a.m.,be,not,a,good,time,to,be,cry,:-lrb-,i,should,be,asleep]
[be,walk,home,in,the,friggin,rain,.]
[so,wet,&,cold,:,-lrb-]
[soak,wet,,,out,of,breath,and,my,butt,'s,a,little,sore,:,-lrb-]
[@debbiefletcher,and,you,will,come,to,Brazil,with,the,money,you,win,.]
[we,want,you,in,Brazil,Debbie,,,here,'s,so,cool,,,ask,for,tom,-rrb-,:]
[Photo,:,-lrb-,via,aquabook,-rrb-,http://tumblr.com/xoy234smj]
[rt,@stopahmadi,``,Iran,:,networked,dissent,'',by,@chrchristensen,http://bit.ly/ynim1,#iranelection,power,of,technology]
[around,miss,my,baby,:,-lrb-]
[need,my,sunshine,with,I,,,here,:,-lrb-]
[rt,@viovibe,it,kinda,taste,like,crowd,surfing,...,or,so,we,think,.]
[tell,we,what,you,think,Vio,kinda,taste,like,and,win,http://digg.com/u1bjkz]
[really,wish,I,be,in,dc,right,now,:,-lrb-]
[go,to,take,a,shower,;,then,fix,some,pizza,.]
[i,miss,my,baby,:-lrb-,.]
[texttt,or,call,if,you,need,I,.]
[let,I,go,home,...,please,...,:,-lrb-]
[it,could,be,the,soundtrack,to,t,and,r,'s,life,,,too,bad,someday,will,never,come,for,they,:,-lrb-]
[just,find,out,I,have,family,affect,by,the,typhoon,in,the,Philippines,.]
[:-lrb-,thx,to,@happyslip,for,this,!]
[http://bit.ly/vn9ni]
[just,realize,I,leave,my,coffee,in,my,car,.]
[have,to,run,out,and,get,it,on,break,:,-lrb-]
[@janemcmurry,unfortunately,he,do,not,:-lrb-,i,might,clone,and,sell,he,.]
[you,would,like,he,lost,halloween,costume,too,--,daniel,faraday,.]
[@florateyu,-rrb-,-rrb-,-rrb-,:,flora,i,be,die,!!!]
[first,time,cycling,to,work,on,consecutive,day,-,heavy,leg,:--lrb-,.]
[also,,,yoghurt,and,raspberry,do,not,=,enough,to,cycle,on]
[@liindseyyyy,sooo,,,you,``,rt,'',so,that,mean,you,agree,!!!]
[lol,:,-lrb-]
[be,labour,voter,grateful,to,the,Sun,for,the,sympathy,Brown,'s,get,because,of,lazy,journalism,?]
[rt,@themedia_blog,http://bit.ly/3344tr]
[Part-Time,House,Cleaner,-lrb-,fairfax,-rrb-,:,be,look,for,a,part,time,house,cleaner,three,day,in,a,week,for,approx,.]
[3-5,.]
[.]
[http://bit.ly/dyjmp]
[rt,@AtlanticGolf,Post,a,comment,on,we,fan,page,http://twurl.nl/f0a8yh,and,you,be,enter,to,win,a,$,100,Atlantic,Golf,gift,card,!]
[hate,be,I,will,at,weekend,...,all,my,plan,be,out,the,window,for,soup,and,a,sofa,:,-,-lrb-]
[it,would,be,awesome,if,the,wedding,I,be,in,could,be,like,this,-lrb-,sadly,,,it,really,will,not,-rrb-,:,http://bit.ly/29w0c0]
[Photo,:,-lrb-,via,wooyoung,-rrb-,http://tumblr.com/xte3i2rlc]
[rt,:,@AdamZagoria,:,Achraf,Yacoubou,of,Long,Island,Lutheran,say,he,top,3,be,UConn,,,Villanova,,,Kentucky]
[that,would,make,a,funny,t-shirt,!]
[rt,@thebeadgirl,:,change,my,name,to,``,dad,'']
[a,piece,of,my,car,snap,clean,off,when,I,open,my,driver,'s,side,door,earlier,and,now,my,door,will,not,stay,open,.]
[:,-lrb-]
[I,have,get,Missy,Higgins,song,stick,in,my,head,:,-lrb-]
[Toronto,Jobs,live-in,caregiver,-lrb-,Toronto,-,Ontario,-rrb-,:,education,:,completion,of,high,school,some,c.,.]
[http://bit.ly/6is0p]
[Photo,:,-lrb-,via,wtfjamie,-rrb-,I,want,to,be,friend,with,all,of,these,people,.]
[http://tumblr.com/xkg3r6c0n]
[@bobby_dore15,yeah,:-lrb-,i,dont,even,have,the,energy,to,think,anymore,.]
[i,miss,my,holiday,like,mad,already,,,:,-lrb-]
[there,be,so,many,film,i,have,not,see,yet,.]
[:,-lrb-]
[they,be,tell,I,to,chug,,,32,oz,.]
[Sooooo,not,gon,na,happen,,,it,be,time,to,go,:-lrb-,http://twitpic.com/a336r]
[@daveellis0808,I,have,no,idea,if,it,be,work,,,be,not,get,a,spare,to,test,:,-lrb-]
[I,lose,my,hairbrush,somewhere,between,brooklyn,and,michigan,.]
[&,go,swim,this,morning,.]
[I,be,go,to,make,a,fantastic,first,impression,!]
[I,get,ta,get,the,FUCK,outta,here,smh,...,fuck,it,im,gon,take,a,risk,!]
[Pro-Zelaya,protest,grip,#honduras,ahead,of,talk,http://bit.ly/4vpyq]
[anyone,else,go,to,the,@zappos,meetup,?]
[@GZ_Dave,oh,hay,,,thanks,for,the,add]
[tc50,and,Tony,Hsieh,:,be,you,try,to,change,the,world,?]
[http://post.ly/5btl]
[Car,&,driver,-,quick,spin,:,Fiat,500C,1.4,Lounge,:,what,be,it,?]
[itõs,a,sort-of-convertible,version,o.,.]
[http://bit.ly/12rdaf]
[@blastoffpros,chillin,!]
[sorry,4,the,late,response,!]
[just,get,do,write,note,note,for,next,wednesday,...,wonder,what,we,be,go,to,name,we,baby,man,...,he,will,have,that,name,forever,...]
[Darrington,WWTP,Weirs/Weir,Troughs,http://tinyurl.com/y959jy4]
[06:47,Orbital,-,The,Saint]
[God,damn,it,.]
[I,want,a,fucking,game,night,.]
[I,want,to,PLAY,ZE,BOARD,GAMES,!]
[test,from,the,fox,#osfcmfl]
[rt,@colletts,:,Collett,'s,Mountain,Holidays,-,special,offer,for,mid-late,August,&,Early,Sept.,.]
[italian,dolomite,http://bit.ly/17ydbj]
[another,long,day,.]
[surprisingly,stress-less,consider,the,rain,and,commute,.]
[Lunchenda,at,Mister,Kebab,.]
[Keema,and,pita,yum,!!!]
[take,the,``,qual,sua,fama,na,escola,?,'']
[quiz,&,get,:,Popular,;D,!]
[what,will,you,get,?]
[_,http://bit.ly/11wxcn]
[Part,Time,Jobs,,,India,:,Part,time,job,,,Online,Jobs,,,Data,Entry,job,:,everyone,who,be,look,for,that,perfect,.]
[.]
[http://tinyurl.com/nfuyo4]
[Rotech,Healthcare,,,Inc.,be,Hiring,:,Medical,Billing,Quality,Assurance,Spe,...,-lrb-,Lakeland,,,fl,-rrb-,http://bit.ly/bwsro,#jobs,#tweetmyjobs]
[@nubian122,go,out,to,dinner,w,the,girl,dinner,with,my,yellow,tom,.]
[&,the,dog,park,in,the,day,.]
[.]
[american,football,star,try,curl,http://tinyurl.com/ybthtfm]
[recreational,calendar,:,camp,tar,heel,baseball,camp,,,University,of,North,Carolina,,,chapel,Hill,:,Little,League,,,.]
[.]
[http://bit.ly/k31pi]
[@kokeshi_me,do,you,make,the,marionette,,,too,?]
[both,piece,be,amazing,!]
[#in,2010,@youngscolla,will,be,the,Hook,King,!]
[--,watch,!]
[@kimstable,will,you,be,my,girlfriend,?]
[i,want,a,xbox,!!!!]
[rt,@isotopp,:,LOL,@,http://twitpic.com/bcceq]
[@_yoyo,I,still,dunno,what,I,would,put,on,it,!]
[lol,...,so,far,it,would,consist,of,pic,&,that,be,what,flickr,for,!]
[but,I,like,the,name,,,I,think,.]
[@maggagyal,loo,,,well,then,you,have,better,grab,some,grub,then,.]
[I,love,Zsa,Zsa,Gabor,.]
[so,classy,and,stylish,.]
[badmood,badmood,badmood,-_-,idk,why,,,bcause,I,be,hungry,or,because,bad,hair,daaay,.]
[video,kill,the,radio,star]
[creative,people,be,draw,and,paint,outside,my,window,but,all,I,can,think,about,be,``,legal,meh,?,'']
[I,blame,my,totalitarian,upbringing,.]
[hey,,,let,go,of,all,you,know,and,get,fire,away,now,.]
[what,have,you,get,to,loose,-lrb-,8,-rrb-]
[I,can,celebrate,now,...,rt,@smojica,:,dropbox,the,iPhone,app,have,drop,http://tinyurl.com/yko4dzg]
[rt,@adlibenglish,:,a,great,website,to,practice,you,pronunciation,http://is.gd/58nfd]
[read,about,the,Eating,Disorders,:,Anorexia,,,BED,,,Bulimia,,,EDNOS,.]
[visit,,,http://ouwillemergevictorious.blogspot.com]
[confirm,the,price,of,Touch,Soccer,3d,will,be,$,0.99]
[@nic_a_,that,bad,?]
[I,like,packed,lunch,and,then,go,home,for,dinner,too,:,-,p]
[I,just,take,the,``,voc,t,apaixonado,-lrb-,a,-rrb-,?,'']
[quiz,and,get,:,sim,,,t,apaixonado,-lrb-,a,-rrb-,*,-,*,!]
[try,it,_,http://bit.ly/i2ntq]
[wait,a,second,,,I,only,have,a,week,of,be,18,leave,.]
[should,not,I,be,out,do,irresponsible,thing,right,now,?]
[ca,not,be,bother,,,though,.]
[its,rain,like,crazy,.]
[.]
[but,i,aint,supa,trippin,,,im,supa,chillin,waitin,on,a,supa,million,.]
[.]
[come,soon,.]
[.]
[rt,@justjaredjr,Taylor,Lautner,:,New,ÔNew,MoonÕ,Clip,!]
[:,Taylor,Lautner,whisper,some,reassuring,word,to,Kristen,Stewart,http://bit.ly/gcivl]
[rt,@bittman,starbuck,``,unbranding,'',store,in,a,attempt,to,make,they,un-starbuckian,.]
[http://post.ly/2hji]
[http://bit.ly/ogt98]
[Ok,,,can,we,just,be,do,with,the,news,about,Tiger,Woods,now,?]
[can,we,get,back,to,the,real,news,...,the,latest,on,the,salahis,!]
[LOL]
[:-rrb-,!!!!]
[rt,@usnoozin,:,#FollowFriday,MY,FAVS,-,awesome,@danhe13,@gemstars,@superglrl,@jennihogan,@crystalrose64,@radioblogger,@drewfromtv]
[I,want,to,go,to,the,Hamptons,.]
[fan,be,on,and,window,be,on,,,but,I,be,still,really,hot,.]
[do,not,want,,,August,.]
[@jordanknight,ur,wear,the,outfits,y',all,wear,during,hang,tough,be,not,u,?]
[lol]
[@amieyacula,redneck,do,not,like,we,kind,...,lol]
[@marleyterrier,i,wil,luk,at,it,marly.fank,yoo,for,sayin,I,bowt,it.i,ope,yoo,do,be,owt,for,wark,tooday,co,it,do,be,nise,a,sunny,.]
[.]
[stroke]
[wonder,if,@tathiessen,and,@officialkathyg,be,watch,#designstar,with,we,?!]
[watch,@ladylillian,paint,@nopantsdance,.]
[I,be,next,#fallenladies]
[rt,@pierrepaperon,:,Hubble,be,back,!]
[with,New,Stunning,Images,http://bit.ly/4fxwp]
[@pr_things,now,we,have,2,thing,in,common,!!!]
[;-rrb-,-rrb-,now,,,what,be,you,opinion,about,the,color,orange,?]
[ca,not,wait,to,tackle,@amypookers,and,@erynmichael,in,a,hug,in,a,few,hour,!!]
[<,33]
[woooot,woooooooot,!]
[90210,have,pick,the,right,baseball,team,!]
[good,shitttt,.]
[``,even,if,you,pretend,not,to,have,hear,what,you,heart,tell,you,it,will,always,be,there,inside,you,repeat,what,you,be,think,about,life,'']
[#qanda,the,debt,be,there,for,a,reason]
[rt,@jessemccartney,:,#musicmonday,http://twiturm.com/2t06,listen,to,and,share,body,language,-lrb-,feat,.]
[T-Pain,-rrb-,.]
[retweet,it,people,.]
[.]
[@morriscat,that,would,be,lovely,!]
[then,we,can,have,the,roasted,chicken,and,tuna,fishy,all,day,long,!]
[wouldve,really,like,to,hear,the,analytic,group,in,202,go,up,against,the,B&J,/,Sharpie,case,study,group,at,#adtechchi,...,powerful,insight]
[have,fun,in,EPCOT,with,Sara,today,...,play,``,Mission,:,Space,Race,'',and,lose]
[i,get,berate,by,a,old,lady,for,tell,snoop,off,for,pull,on,he,lead,.]
[politeness,stop,I,from,give,she,snoop,&,run,!!!]
[@moegreeb,well,I,have,to,admit,that,spend,the,day,on,my,hand,and,knee,like,Cinderella,be,not,the,most,fun,I,could,imagine,.]
[rt,@azchallenger,:,rt,@NASAWatch,New,planet,Discoveries,around,nearby,Stars,http://bit.ly/6b5sbr]
[@virginiaarchie,people,question,and,be,interview,.]
[hopefully,at,the,next,david,event,we,could,meet,up]
[@blooylou,deuce,wild,!]
[ahahaha,.]
[and,now,I,be,read,20,page,of,the,Euro,book,.]
[must.catch.up,.]
[take,my,quiz,!]
[how,well,do,you,know,@juliahofling,?]
[http://bit.ly/19thbz]
[finish,my,good,girl,deed,4,the,week,...,sip,some,wine,then,take,a,nap]
[http://if10.net/0cf,Apple,Rock,and,Roll,Event]
[@nieanadya,I,have,hear,it,get,sad,at,time,,,but,i,be,still,go,to,see,it,,,it,look,funny,.]
[.]
[I,usually,see,everything,that,come,out,lol]
[@michelleyus,ha,!]
[Michelle,,,that,be,the,Army,DNC,club,that,do,that,,,not,Chaney,!]
[so,,,what,be,this,about,Craigslist,?]
[tell,I,more,!]
[intense,movie,review,http://bit.ly/1dxqb,#film,#media,pls,rt]
[rt,@tweetmeme,10,fresh,tool,and,resource,for,web,developer,http://tinyurl.com/msdt2j]
[rt,@freemoney_tweet,:,check,this,:,cash,in,on,Ebay,!]
[http://bit.ly/f962n]
[so,I,just,notice,that,the,mbp,cool,down,through,the,keyboard,.]
[guess,I,can,not,leave,it,close,anymore,while,it,be,connect,to,my,display,=,-lrb-]
[richest,man,in,the,world,vs,indigenous,ppl,>,Oxford,Ala,Council,find,for,the,rich,http://tinyurl.com/nembwv,#nosamsclub,#paroleforpeltier]
[New,blog,post,:,I,want,to,be,a,nurse,or,a,midwife,.]
[where,do,I,Start,I,live,in,South,Wales,http://bit.ly/o6vec]
[@fab225,im,ready,!]
[i,just,pop,2,vitamin,c,pill,just,now,!]
[@sheilaeinto,i,like,that,song,too,...,but,I,also,like,this,song,...,http://tinyurl.com/32mt4j]
[@andy065,you,hashtag,you,underwear,?]
[@saulo180,really,?]
[why,be,you,there,?]
[I,say,t,minus,9,day,earlier,,,but,I,mean,t,minus,8,day,...]
[hi,creepy,foreign,man,.]
[subway,at,9am,be,NOT,Havana,at,9pm,.]
[go,away,!]
[chilling,at,home,,,da17,5ap]
[parent,,,donõt,risk,you,tax,credit,!]
[:,ôfamilies,who,receive,work,tax,credit,and,child,tax,credit,should,.]
[.]
[http://bit.ly/2kuyuj]
[hard,Rock,plan,Pinktober-Fest,for,breast,cancer,awareness,http://ow.ly/sham]
[:,any,Webdesigners,PT/FT,for,hire,?]
[need,one,desperately,to,design,high-profile,website,.]
[send,portfolio,to,redewe@gmail,Pls,rt]
[Kingdom,of,Heaven,screenplay,have,a,sequence,in,Rome,where,Neeson,'s,and,Bloom,'s,character,meet,the,Pope,.]
[would,love,to,have,see,that,.]
[rt,@brookeadamstbg5,:,everybody,wish,@mandyjiroux,the,best,birthday,ever,!]
[I,love,she,so,much,!]
[$,bday,Nov.,13,$,i,need,10,000,friend,on,myspace,to,do,certain,stuff,help,I,out,post,a,bulletin,about,my,site,tell,e,...,http://lnk.ms/4q1fj]
[happy,Thanksgiving,to,all,who,celebrate,!]
[it,be,a,beautiful,day,here,,,clear,and,crisp,.]
[about,to,get,my,``,cook,on,'',.]
[riveting,talk,by,remarkable,people,,,free,to,the,world,http://www.ted.com/]
[New,blog,post,:,GreenLine,Seehotel,Feldberg,Mecklenburg,Lake,District,http://bit.ly/6kjro]
[i,cant,wait,to,the,wizerd,of,waverly,place,movie,!!]
[the,faculty,member,who,both,fall,off,a,curb,and,run,into,a,door,stare,at,I,last,year,?]
[yeah,,,he,be,teach,one,of,my,class,.]
[rt,@haldira,please,encourage,other,to,see,@NathanFillion,'s,movie,trucker,this,weekend,,,detail,at,http://twurl.nl/0qwmmo,-lrb-,via,@fannishinc,-rrb-]
[@anythingzombie,...,its,the,12th,here,!]
[lol,.]
[any,.]
[rt,@claudioalegre,:,best,weekend,for,#ecrabo,?]
[@modulista,@modulist,@lapp,@jeanetteag,@allisonnazarian,@mikelamonica,@cristnabls,@gopalo]
[I,sanna,lovisa,as,huey,,,dewey,and,luie,!]
[BTW,,,if,you,ever,have,doubt,on,they,.]
[.]
[http://bit.ly/ev3e6]
[search,Twitter,for,#hottest,100,:,http://tinyurl.com/l4xguq,party,at,my,desk,!]
[wow,wide,open,...]
[come,on,eagle,the,nfl,have,make,in,interesting,in,way,too,many,game]
[Verdi,'s,ice,cream,be,the,best,!]
[quick,dash,home,,,then,I,be,off,to,Grandma,'s,annual,choir,concert,to,sell,programme,at,the,door,...,major,rush,!]
[@robinacollins,right,!]
[in,the,driveway,.]
[I,be,not,even,home,.]
[i,pull,up,w,/,my,cousin,to,fire,truck,and,shyt]
[Chinatown,,,baby,.]
[I,take,em,',down,to,Chinatown,.]
[@ashbash6317,heck,yea,we,be,...,that,be,why,you,and,everyone,else,keep,I,around,.]
[;,-rrb-]
[NYT,:,traditional,journalist,still,break,news,,,not,blogger,http://www.nytimes.com/2009/07/13/technology/internet/13influence.html]
[Yay,for,pretty,shoot,with,pretty,bffffff,!]
[http://www.flickr.com/photos/ceruleandepths/3651704539/]
[rt,@mastercreating,:,Discover,how,transparency,be,liberating,.]
[http://is.gd/f91a,article]
[@Avaaz,you,don,``,t,have,to,thank,!]
[in,fact,i,should,thank,you,guy,!]
[we,be,in,the,same,channel,!]
[greeting,fr,Cancun,Mx]
[@misskoya,it,can,be,a,package,deal,...,we,get,a,brother,and,sister,from,a,good,family,and,get,we,bill,pay,...]
[these,guy,be,pretty,cool,:,http://www.myspace.com/thesethreecities]
[most,revolutionary,new,musical,instrument,of,the,last,60,year,?]
[http://j.mp/cg9kx,-lrb-,via,@creativityboost,-rrb-]
[http://tinyurl.com/nt2nkd,-,become,a,powerful,master,of,the,PPC,apparatus,.]
[-lrb-,do,more,than,$,4000,a,day,with,AdWords,.,-rrb-]
[seriosuly,there,be,so,many,character,in,order,to,pl,every,single,person,its,insane,I,have,a,page,full,of,sign,across,the,page,,,insane]
[you,can,find,and,compare,local,phone,service,from,lead,company,.]
[White,Fence,http://bit.ly/1tyoih]
[Yanks,Win,Game,1,of,Double-Duo,:,wp,-,Phil,Hughes,-lrb-,6-3,-rrb-,lp,-,Lance,Cormier,-lrb-,2-2,sv,-,Mariano,Rivera,-lrb-,39,-rrb-,Derek,Je,.]
[.]
[http://bit.ly/3qpco]
[the,mummy,be,go,to,fuck,you,now,_]
[@tharealleaky,lolz,im,not,tho,...,hope,he,dont,think,i,be,kmt,!!]
[http://twitpic.com/8ladp,-]
[http://twitpic.com/c1876,-,I]
[#iwmwp,4,I,agree,with,@davie_t,.]
[I,think,that,by,CMS,in,this,session,you,mean,Configuration,Management,System,-lrb-,ITIL,-rrb-]
[Sultan,5/5,on,Yelp,:,this,review,be,exclusively,about,the,hummus,of,Sultan,.]
[have,spend,half,a,year,in,a,far,away,l.,.]
[.]
[http://bit.ly/hsv7d]
[@osangmeister,deep,thanks,to,my,love,osang,and,rub,.]
[@vbrissa07,I,be,so,smart,s-m-r-t]
[the,mall,be,full,of,hobo,.]
[too,bad,i,do,not,have,my,camera]
[could,really,do,with,one,of,these,please,rt,to,win,!]
[I,want,to,be,in,with,a,chnace,!]
[:--rrb-,http://is.gd/1crha,#scramble,@robmercury,tell,ash]
[run,7.5,mile,comfortably,.]
[the,comeback,trail,be,go,well,!]
[rt,@obox,:,Social,Media,be,a,Tool,http://digg.com/d1tevq]
[rt,@mashable,study,:,Facebook,increase,Jealousy,in,Relationships,http://bit.ly/3ooyim]
[rt,@realcdotmoody,:,@bigbuttnsmile,umm,u,act,like,u,dont,wake,up,in,ratchet,mode,,,da,fuck,u,mean,u,feel,like,be,ratchet,today,??]
[ha,!]
[<,-,lmao]
[``,Sippin,on,my,pinot,get,I,cooler,than,pacino,and,DeNiro,put,together,my,real,life,be,like,casino,.]
[.,'']
[@womanatmile0,ack,,,indeed,!]
[spider,get,big,this,time,of,year,,,and,start,move,indoors,.]
[rt,@professorf,:,Huffpost,-,Ferentz,Lafargue,``,Baseball,strike,out,Again,'',http://bit.ly/DZvyz]
[@yening,thanks,for,the,song,.]
[I,learn,a,new,juggling,trick,tonight]
[Alliance,formally,launch,attack,on,...,-,Wall,Street,Journal,http://bit.ly/1bkuwt]
[@JessyBR,Hmm,,,I,think,he,go,to,meet,and,greet,yes,.]
[and,the,show,be,always,great,!!]
[no,stalker,at,all,.]
[Bras,,,Purple,Boa,and,much,love,!]
[@,2popetorn,arrghh,u,r,on,twitter,too,!]
[make,love,in,the,kitchen,:,play,it,again,week,,,Brush,up,|,online,...,http://bit.ly/cxhwf]
[hey,@ChrisPirillo,,,I,read,you,top,25,list,:,http://go.tagjag.com/jinx,-lsb-,and,all,I,get,be,this,lousy,t-shirt,!,-rsb-,'']
[SPEECHlESS,BUT,liSTEN,iMMA,b,iiGHT,CUZ,AiNT,n0,h0e,in,my,bl00d,...,l0l,...,really,h0w,U,G0NE,TEll,ME,WHETHER,iM,HURT,0r,...,http://lnk.ms/2zzqx]
[Photo,:,http://tumblr.com/xzt4yr3hf]
[yec,be,a,wrap,.]
[great,work,with,Skillet,,,group1crew,and,bluetree,.]
[all,incredible,people,do,incredible,thing,.]
[US,start-up,find,way,to,pay,via,Twitter,http://ping.fm/b5ep0]
[@johndellaporta,silliness,!]
[I,be,just,hungry,before,work,so,I,go,to,the,gas,station,beforehand,.]
[I,wish,I,have,a,more,interesting,story,!]
[50,best-of,designerõs,-lrb-,new,-rrb-,download,Picks,and,Resources,:,http://itsy.nl/vmsz2]
[Parexel,be,Hiring,:,patient,and,site,recruitment,-lrb-,Durham,,,NC,-rrb-,http://bit.ly/4s7sbn,#jobs,#tweetmyjobs]
[I,just,attack,@ducksensei4,and,lose,.]
[#ninjaclash,http://ninjaclash.com]
[@,50peso,haha,what,be,up,lil,buster,when,ever,u,get,that,motorcycle,lic,haha,.]
[what,be,up,with,u,fairy,how,'s,the,band,dude,?]
[http://tinyurl.com/mbtameet,#mbta,meeting,tonight]
[Michael,Vick,may,keep,$,16,million,bonus,from,Atlanta,Falcons,,,federal,appeal,court,rule,http://ff.im/-bjzpd]
[Lansdowne,,,located,in,a,community,know,as,...,Lansdowne]
[already,finish,final,edit,of,ch,3,.]
[Shinny,&,lovely,.]
[absolutely,proud,of,hook,at,the,end,.]
[on,to,ch,4,#amwriting]
[people,.]
[.]
[listen,up,.]
[.]
[who,want,a,@dkny,watch,?]
[I,pack,up,Oprah,'s,box,&,I,have,1left,over,.]
[.100,th,person,to,rt,this,-,win,http://bit.ly/11msii]
[@s_lesley,@orphesteude,this,be,interesting,be,a,sort,of,moderator,between,you,two,.]
[sarah,you,text,,,i,read,to,taylor,over,skype,.]
[fun,time]
[gay,man,date,http://is.gd/1jm8i,fast,acne,cure,http://is.gd/1jm9d,remove,mole,/,wart,http://is.gd/1jm9s,top,date,site,http://is.gd/1j]
[guess,what,--,i,finish,the,lease,and,my,financial,aid,paper,...]
[i,feel,like,thee,only,weight,have,be,lift,off,my,shoulder,.]
[=],-rsb-]
[@trelljj,that,cool]
[@jaronmc,LOL,it,go,together,nicely,-,see,I,would,have,to,rush,onto,my,balcony,to,ge,the,shot,and,right,now,haz,no,pants]
[luv,it,!]
[rt,@robertgirandola,when,I,be,little,,,I,use,to,draw,on,the,wall,,,sign,it,with,my,brother,'s,name-parent,buy,it,for,a,while,.]
[rt,@tqjones44,:,Conservatives,&,republicans,R,scare,2,death,that,they,child,may,find,out,that,they,parent,r,bat,SHIT,CRAZY,!]
[#gop,#tcot]
[back,to,the,House,of,the,Toasted,laptop,tonight,,,SO,close,to,afford,new,sparkly,slinky,imac,I,could,cry,.]
[hole,in,metaphorical,donut,.]
[Booo]
[@sweetmiseryy,I,be,not,on,MC,on,Sunday,-,be,on,``,weekend,leave,'',,,mean,I,be,free,to,roam,around,...,then,MC,from,yesterday,.]
[:,-rrb-]
[aww,qtt,my,periodd,|,Stupidd,harr,dyee,didnt,workk.neww,picturee,qoo,comment,ill,returnn,the,favorr,:-rrb-,|,Talkin,to,and,...,http://lnk.ms/3g6hq]
[i,do,not,like,how,i,just,use,``,sleep,'',twice,...,so,let,'s,change,that,to,i,be,tired,:,-rrb-]
[rt,@bearblanca,...,when,I,be,sad,:-rrb-,-,true,!]
[thank,you,,,not,every,girl,be,stick,up,!]
[rt,@lyndakelly,:,rt,@richallsop,:,#bb,10,be,they,allow,to,discuss,nomination,still,?]
[I,wonder,that,bea,just,discuss,they,.]
[.]
[@rajeshlalwani,ah,woh,toh,hain,.]
[I,feel,that,too,.]
[but,then,Twitter,be,a,outlet,no,?]
[throw,some,+,+,+,+,+,+,+,+,ve,energy,at,you,.]
[:,-,-rrb-]
[@ahisme,haha,!]
[I,think,they,be,all,worth,it,-,british,guy,be,extremely,talented,and,extremely,charming.,:,-rrb-]
[I,love,come,home,freezing,,,smell,of,wood,smoke,,,and,full,of,fried,chicken,,,veggy,,,and,a,million,kind,of,cake,:,-rrb-]
[@makemeup82,I,be,go,to,do,Lucy,next,year,for,Halloween,:,-rrb-]
[arrive,at,the,cockpit,.]
[good,morning,all,:,d]
[buy,a,Nikon,d3000,slr,today,!!!!]
[thanks,grandma,i,will,miss,you,!!]
[but,ill,think,of,you,w,/,every,new,memory,!]
[=,-rrb-]
[:-rrb-,si,RT@Lyphpcp:,it,be,fun,to,stay,at,the,y-m-c-a,...]
[and,in,case,you,do,not,know,,,i,be,on,omegle,.]
[:,-rrb-]
[rt,@ceworks,:,NIKE,resign,from,the,Board,of,Chamber,of,Commerce,,,say,they,``,fundamentally,disagree,'',on,climate,change,:,http://su.pr/6z8tmq]
[@abetterflapjack,heh,,,in,a,modern,version,of,WordPress,,,perhaps,.]
[:--rrb-,-lrb-,&,that,be,why,I,need,the,backupé,to,upgrade,!,-rrb-]
[thanks,.]
[rt,@freefilen,Gayle,San,-,fine,Audio,DJ,Mix,Series,Vol,.]
[2,-lrb-,1998,-rrb-,http://bit.ly/2cqdi]
[im,talk,to,myself,.]
[Haha,.]
[see,what,its,come,to,.]
[lol,.]
[:,-rrb-]
[ah,:-rrb-,you,make,I,smile,so,much,,,and,you,do,not,even,know,it,.]
[I,love,watch,old,show,I,feel,they,have,more,value,than,show,today,:,-rrb-]
[ca,not,wait,to,looky2,@,ampel,next,week,...,bwahahaha,:d,http://myloc.me/snbz]
[Hungry,?]
[maybe,?]
[read,harry,potter,.]
[:,-rrb-]
[summer,!]
[summer,!]
[its,summer,mother,fucker,!!!!]
[:,d]
[rt,@mulator,:,5,minute,until,we,hear,the,sweet,music,of,``,he,shoot,...,he,score,!]
[http://twitpic.com/ear75,-,Mmm,desert,:,-rrb-]
[rt,@newscientist,Engineering,the,gene,of,livestock,could,make,they,incapable,of,feel,pain,http://bit.ly/xgg4k]
[let,we,endeavor,so,to,live,that,when,we,come,to,die,even,the,undertaker,will,be,sorry,.]
[.]
[^,^,^,so,say,Mark,twain,.]
[:,-rrb-]
[@chadwickhjones,ha,;,i,dont,get,facebook,,,lol,.]
[:,-rrb-]
[just,book,a,last,minute,trip,to,Germany,.]
[go,to,Hamburg,&,and,a,little,town,that,I,can,not,spell,.]
[:,-rrb-]
[bom,dia,!]
[live,from,the,windmill,!]
[:,-rrb-]
[i,think,shakey,'s,have,the,best,buffalo,wing,:,-rrb-]
[Yo,@johnthornhill,and,@Dave_Nicholson,,,it,be,nice,to,see,you,guy,on,here,briefly,again,!]
[=,-rrb-]
[@PRiMETiMECHiCKZ,Thanx,:-RRB-,whenever,some1,ask,I,how,I,spell,my,name,they,think,its,spell,like,yours]
[rt,@chipotlemedia,:,June,Cosmopolitan,list,Chipotle,-lrb-,client,-rrb-,as,one,of,the,best,place,to,meet,man,.]
[http://tiny.cc/dsbae,-,true,that]
[I,be,update,the,@tweamburke,folder,!]
[:,-rrb-]
[@mircea_popescu,i,will,do,my,best,:,-rrb-]
[@illscarlett,winnipeg,soon,?]
[-lrb-,:,hope,so,.]
[i,love,you,guy,<,3]
[oh,man,.]
[I,be,very,tired,.]
[but,I,be,very,happy,.]
[I,feel,love,by,KC,&,Co.,.]
[it,be,amazing,.]
[:,-rrb-]
[@jefftimmons98,do,u,talk,about,I,?]
[lol,I,be,hope,to,hear,ur,voice,too,.]
[do,another,BT,instead,:-rrb-,loveya]
[rt,@schmorker,:,extreme,pogosticking,!]
[http://is.gd/2fegt,>>,talk,about,risk-taker]
[@seankingston,hey,hope,you,well,just,find,ur,account,so,think,id,follow,you,and,send,u,a,tweet,:-rrb-,xx]
[@corgreen,so,glad,to,see,everything,go,good,:-rrb-,now,the,journey,begin,:-rrb-,congrat,:-rrb-,what,a,great,Christmas,present,:,-rrb-]
[@marvetbritto,it,definitely,be,!]
[you,should,have,a,book,of,all,you,`,pr,gem,',I,always,read,they,2,my,class,&,my,teacher,love,they,!]
[:,-rrb-]
[@jackieloi,wah,!]
[die,ah,.]
[.]
[I,mean,.]
[.]
[Diet,ah,?]
[:,d]
[@realbrookewhite,aww,you,look,really,pretty,in,that,pic,:-rrb-,i,love,you,hat,!]
[thanks,for,sharing,:,d]
[@mitchelmusso,-,britney,do,!]
[-lrb-,:,Hahaha,.]
[and,why,do,not,you,just,go,to,2010,?]
[that,be,one,more,person,you,can,make,happy,!]
[-lrb-,:]
[@yassoma,yeah,remind,I,that,i,didnt,publish,my,pic,once,i,get,it,:,d]
[@cathrynmarie,mornin,cat,!]
[I,have,some,yam,for,you,.]
[:,-rrb-]
[rt,@hideyokusano,#twitdraw,http://twitdraw.com/rstyos]
[homecoming,at,church,in,a,lil,bit,-lrb-,:,...,http://lnk.ms/2hgvt]
[enjoy,some,vino,and,food,with,la,whore,and,she,friend,:,-,-rrb-]
[@diamondlarry,amen,to,that,!]
[:,-rrb-]
[lol,aww,!]
[rt,@aubreyoday,:,http://twitpic.com/gi9in,-,my,momma,with,she,man,.]
[they,have,not,see,each,other,for,a,week,.]
[get,that,cuddle,...]
[http://twitpic.com/7b9zm,-,I,love,mary,-lrb-,:]
[@jenalynmichelle,what,time,do,you,work,today,?]
[...,and,what,be,you,do,before,that,?]
[=,-rrb-]
[@itsmebadgley,suuurrrrrreeee,u,will,ha,i,know,one,subject,u,will,not,answer,.]
[:--rrb-,you,be,on,my,twit,wallpaper,ha,ha,that,not,weird,at,all,.]
[.]
[@boroianbabes,i,be,okay,.]
[watch,a,movie,,,actually,.]
[put,together,a,album,of,photography,actuallly,:-rrb-,how,be,you,?]
[@natassiachloe,hahah,yeshh,thankss,tass,:-rrb-,http://myloc.me/cpj8]
[@fanyjjang,they,be,so,awesome,,,be,n`t,they,?]
[:-rrb-,Gosh,,,I,hope,they,`,ll,be,as,popular,as,snsd,!]
[@raychul_5,the,leo,symbol,cradle,a,star,on,one,side,and,a,moon,on,the,other,.]
[:,-rrb-]
[ok,yeah,hahah,so,I,be,back,state,fair,,,i,be,frekin,tire,it,be,time,to,go,back,to,bed,again,lol,!!!]
[=,-rrb-]
[@carolinamnz,:d,i,know,loveu,!]
[caroon]
[@bbygirl_wy,see,you,later,!]
[ice,cream,bar,later,,,tara,:,-,-rrb-]
[15th,monthsary,!!!!!!!!!!!!!!]
[<,3,bpp,be,the,best,bf,in,this,whole,damn,world,!]
[-lrb-,:]
[@saramadison,let,!!]
[I,have,two,.]
[:,-rrb-]
[Beautifull,news,-,``,endless,music,'',of,Michael,Jackson,:-RRB-,http://bit.ly/n73mz]
[ugh,...,i,be,not,look,forward,to,the,whitecoat,ceremony,tonight,!]
[oh,well,,,at,least,I,will,get,to,see,my,family,:,d]
[@frumph,good,to,know,phil,:-rrb-,though,I,will,have,to,wait,until,I,get,home,sadly,.]
[@jagz112,yeah,,,he,be,around,most,of,my,life,,,he,hold,a,huge,special,meaning,to,me.nice,to,meet,you,by,the,way,:,-rrb-]
[eval,here,:,http://bit.ly/6mdaurt,rt,@conletters,:,`,Water,neutrality,:,...,',http://ow.ly/iTev,MUST,READ,#f,1000]
[@dongwayne,lol,gossip,girl,'s,cooool,.]
[+,I,have,a,oth,poster,:,-rrb-]
[so,excite,to,go,to,the,airport,today,.]
[I,have,not,be,there,in,a,while,and,its,always,nice,to,see,departure,and,arrival,:-RRB-,people,be,w,...]
[@dirtinmyi,I,know,:-rrb-,issue,.]
[.]
[not,so,cool,either,.]
[BUT,the,eyepatch,be,still,make,of,awesome,!]
[yup,.]
[feature,a,very,young,Hugh,Laurie,and,@StephenFry,rt,@chrislundie,:,Vision,tv,in,Canada,be,apparently,run,Jeeves,&,Wooster,again]
[say,hi,!]
[:-rrb-,-rrb-,http://plurk.com/p/1kkvli]
[get,through,the,photo,at,a,quick,pace,!]
[this,be,great,!]
[soon,a,bbq,with,some,friend,:,-rrb-]
[rt,@bringsdogtowork,:,9-12,dc,March,-,Obama,,,can,you,hear,US,NOW,?!!]
[crowd,roar,http://bit.ly/zgtdz,#tcot,#iamthemob,/,good,video]
[@EyeRanProtestr,it,be,you,,,pal,who,be,in,custody,...,and,already,confess,without,coercion,:-rrb-,-rrb-,-rrb-,-rrb-,-rrb-,-rrb-,-rrb-,-rrb-,-rrb-,-rrb-,#iranelection]
[lot,of,child,cry,at,school,today,-,surprisingly,Anya,be,not,one,of,they,.]
[I,get,a,big,super,huge,hug,though,:,-rrb-]
[Buzz,Aldrin,vs.,Buzz,Lightyear,!]
[rt,@therealbuzz,:,do,anyone,see,I,arm,wrestle,Buzz,Lightyear,?]
[I,win,every,time,.]
[http://ow.ly/fxc6]
[rt,@lg15todaynews,:,rlg15,:,the,last,-,Quietus,-,``,alone,'',http://lg15today.blogspot.com/search/label/quietus]
[rt,@crewt,Orange,Bowl,be,sacred,land,.]
[ca,not,look,at,ungodly,picture,of,a,overpass,get,build,on,its,ground,.]
[okokok,lmao,forreal,this,time,ima,go,shower,=-rrb-,a,nice,hot,shower,lol,my,bathroom,be,madd,steamy,right,now,=-rrb-,lol]
[@cuwarrior,-,if,that,be,true,,,it,be,still,a,lot,.]
[-lrb-,and,do,not,get,I,start,on,the,other,spending,or,the,Iraq,war,...,I,be,punch,out,soon,:,-rrb-]
[I,just,order,my,new,creative,zen,MX,...,can,not,wait,til,it,be,here,:,-rrb-]
[@jakieee08,bahahaha,my,dad,always,get,angry,at,I,for,all,the,picture,i,have,of,they,,,i,have,like,over,3000,:d,haha]
[@ddlovato,hey,,,I,just,want,to,no,when,you,do,another,live,facebook,vid,?]
[:-rrb-,-rrb-,lub,ya,!]
[@weigy,but,do,not,worry,,,be,not,end,of,the,world,:,-rrb-]
[@lilgreenfingers,thank,you,:--rrb-,and,will,call,you,soon,.]
[@sweetener,so,after,the,film,,,should,we,sing,`,happy,birthday,',for,she,?]
[:,d]
[@queenmotherblog,i,will,keep,my,finger,cross,for,you,!]
[hehe,:,-rrb-]
[@hollymadison123,hi,holly,,,im,a,big,fan,from,england,,,just,want,to,say,hey,and,hope,you,do,well,:-rrb-,.]
[please,reply,xo]
[such,a,fun,and,beautiful,dinner,.]
[.]
[thx,to,my,hub,@indraputra,and,all,my,friend,.]
[xoxo,:,-rrb-]
[I,get,my,new,phone,!]
[it,be,beautiful,!!!]
[...,and,I,already,want,a,new,one,.]
[=,-rrb-]
[i,wish,i,know,someone,famous,.]
[or,be,relate,.]
[how,cool,would,that,be?omg,that,my,new,life,goal,,,to,perzonally,know,a,celeb,!]
[:-rrb-,any,offer,?]
[@saradawwgs_,hahahaha,yes,i,know,:-rrb-,uhm,fine,you,can,be,a,oh,i,fucking,give,up,:,-rrb-]
[be,excite,for,the,Wifi,Testing,in,SM,later,!]
[:-rrb-,http://plurk.com/p/14cdn2]
[i,be,currently,join,twitter,because,my,beautiful,andrea,tell,I,it,be,amazing,,,lol,-lrb-,:]
[rt,@spiceee,:,happy,09/09/09,!]
[http://bit.ly/lxvrp]
[i,make,it,!]
[:,d]
[why,be,I,and,my,best,friend,talk,through,twitter,and,not,in,person,hahaha,:,d]
[yes,you,be,,,you,be,my,favorite,one,.]
[:,-rrb-]
[@violetposy,yep,...,I,be,on,it,...,look,right,now,.]
[I,will,get,a,few,for,you,expert,opinion,!]
[:-rrb-,again,,,you,rock,the,HOUSE,!!!]
[@kimkardashian,let,I,be,you,friend,too,?]
[see,my,orkut,:,d]
[now,that,we,be,do,,,I,be,so,sorry,.]
[I,know,I,hurt,youuuuuu,.]
[:,-,-rrb-]
[@thesnarkyone,I,can,not,be,good,at,everything,,,so,I,have,choose,not,to,excel,at,drive,:,-rrb-]
[the,last,2009,.]
[huhuu,.]
[great,year,ever,!]
[and,full,of,memory,:,-rrb-]
[@jawshoouh,well,you,have,lexy,and,carolyn,and,I,and,bree,and,hannah,.]
[we,be,you,friend,:,d]
[@missbehaves,what,do,the,BSB,stand,for,?]
[/,:,-rrb-]
[well,other,than,hurt,my,knee,and,now,a,muscle,in,my,leg,,,im,fine,:,-rrb-]
[rt,@mjnewham,a,collection,of,Humorous,Flowcharts,for,web,designer,http://bit.ly/tbaqx]
[shower,,,get,ready,,,dinner,then,transformer,with,sb,and,kat,:,-rrb-]
[@jeaninedeal,@dreaamara,@happyprettyyou,@reikiawakening,@salesquotes,@vinilereu,@michaelmagical,@jake_di244,thanks,for,the,love,friend,=,-rrb-]
[great,morning,usa,!]
[@joejonasloverxo,@courtney731,@lalasarah,@xkathyxtarax,and,@lesliellyn,be,the,first,five,to,get,it,!]
[:,d]
[@tuftedpuffin,...,but,I,think,I,be,about,6,or,so,when,I,like,they,:,-rrb-]
[@lizzistardust,yeah,,,I,hate,people,how,feel,good,while,they,run,.]
[I,be,not,that,person,:,-rrb-]
[@eni_kao,``,stop,think,about,the,pr,of,how,you,look,and,focus,on,the,journalism,of,what,you,do,.,'']
[:,-rrb-]
[have,the,chance,to,eat,Bettis,',restaurant,on,Sunday,after,Pirate,game,.]
[really,enjoy,it,!]
[:,-rrb-]
[share,Hightlight,of,the,day,:-rrb-,http://tinyurl.com/yhf7tjs,http://plurk.com/p/2imggm]
[@yellowduckx,rawr,!]
[u,need,to,watch,more,oowarai,:-rrb-,glee,be,awesomeee,,,soooo,wuzzup,?]
[have,a,fun,time,`,ride,',on,my,sister,'s,back,!]
[haha,.]
[.]
[she,be,huge,and,i,be,a,dwarf,compare,to,she,:,d]
[@deefamouss,wait,for,you,to,come,read,I,a,bedtime,story,and,tuck,I,in,:,-rrb-]
[@sanjaydbhatia,thanks,and,sorry,for,the,late,reply,...,i,hope,that,mystery,shopper,gig,push,through,...,anything,extra,will,be,a,big,help,:,-rrb-]
[take,the,``,voc,chato,ou,gente,boa,?]
[:d,'',quiz,&,get,:,legal,!]
[what,will,you,get,?]
[_,http://bit.ly/139noc]
[@dannyrob,you,have,have,atough,day,mr.,All,that,drama,at,work,and,relentless,spamming,on,twitter,:,-rrb-]
[i,be,home,alone,for,the,rest,of,the,day,-lrb-,:]
[read,the,tornado,doc,,,on,a,lark,,,I,fire,up,ab,against,my,test,server,and,my,own,framework,just,to,see,.]
[Ouch,.]
[:,-rrb-]
[@krystynchong,who,the,heck,be,marselle,Wallace,??]
[:,-,-rrb-]
[@markkayeshow,lol,:-rrb-,at,least,it,be,a,change,of,scenery,.]
[fresh,air,stimulate,the,mind,...,erm,...,I,think,?]
[lol,:,-rrb-]
[@five15design,i,buy,a,Orinoco,when,I,be,in,the,UK,year,ago,-,he,do,rock,!]
[:,-,-rrb-]
[if,you,be,go,to,#iowacodecamp,and,you,want,to,learn,about,Pex,,,come,to,my,talk,!]
[:,-rrb-]
[@xpr,Hope,you,enjoy,the,vitamin,D.,:,-rrb-]
[rt,@Sugarnspicepix,when,the,world,say,,,``,give,up,,,'',Hope,whisper,,,``,try,it,one,more,time,.,'']
[~,author,unknown]
[nice,.]
[sit,outside,drinking,coffee,and,listen,to,live,music,.]
[the,guy,be,not,so,bad,.]
[Knows,how,to,play,the,guitar,:,-rrb-]
[apod,today,-,such,a,cool,shot,.]
[I,just,hope,Wolowitz,be,not,involve,in,its,construction,.]
[:-rrb-,http://bit.ly/dydiw]
[detail,lagi,:d,yeahh,...]
[I,love,it]
[just,blogg,.]
[warning-contain,reference,to,sweet,thing,:d,http://willsketchforcake.blogspot.com/]
[rt,@toptentopten,:,the,top,ten,greatest,NBA,Playoff,Upsets,:,http://bit.ly/vxmad]
[@claiireeee,what,be,a,flick,?]
[yeah,I,really,do,not,think,mine,will,last,that,long,.]
[it,have,not,start,mess,up,yet,though,-lrb-,:]
[@hawaiianbear,i,should,have,re,-,word,better,.]
[U,be,not,only,one,to,pick,I,up,on,it,.]
[I,be,tired,and,tweet,out,:,-rrb-]
[awesome,place,!!!]
[white,sand,beach,...,clear,blue,sea,...,this,place,be,sooo,relaxing,!!!]
[:d,http://twitgoo.com/1wx2p]
[@OwenDell,Will,we,see,this,in,a,upcoming,tv,program,?]
[:--rrb-,a,tribute,to,minimalism,in,the,garden,?]
[Librivoxateers,,,the,new,community,podcast,be,wonderful,!]
[thank,you,all,:,-rrb-]
[@marcoshaw,:-rrb-,well,when,I,get,settle,,,maybe,I,will,get,one,to,``,splinter,'',from,it,pro,or,a,coffee,and,Code,:,-rrb-]
[Baby,'s,movement,be,so,strong,my,whole,middle,move,!]
[that,be,why,I,can,not,sleep,at,night,.]
[she,be,have,a,party,in,utero,.]
[:,-rrb-]
[@tiggerificly,ironic,that,the,policy,Harman,'s,advocate,make,she,look,like,a,total,failure,:d,http://_.ws/_]
[@sunnysiide,-,Johnny,Tep,sound,like,a,good,name,-lrb-,:,<,3]
[@nongling,yeah,I,get,it,.]
[shake,I,head,,,but,I,get,it,.]
[:-rrb-,LOL]
[pumpkin,pick,w,/,da,fam,and,movie,with,billy,tonight,-lrb-,:]
[okay,twitter,go,to,sleep,now,or,read,lol,love,ya,with,all,my,heart,and,god,bless,every,second,of,every,day,:,-rrb-]
[http://twitpic.com/ck3ei,-,natalie,and,I,when,we,be,about,10,or,11,year,old,:,-rrb-]
[@HardcoreLomeli,really,??!]
[awesome,!]
[I,recommend,you,to,listen,to,``,Wild,Hope,'',-lrb-,record,-rrb-,.]
[it,will,change,you,life,.]
[:,-rrb-]
[@poetryinsepia,hahaha,okay,love,.]
[i,understand,.]
[-lrb-,:]
[@michaelmeloni,maybe,we,need,a,drytub,.]
[-lrb-,and,also,,,caffeinetub,and,sugartub,:d,-rrb-]
[http://twitpic.com/ahtz5,EU,*,-,*,foollow,I,!]
[-lrb-,:]
[rt,@kermitboiii,:,reluctant,to,say,so,,,but,2009,be,the,year,of,the,GaGa,.]
[bearly,come,back,from,school,for,da,registration,:,-rrb-,and,go,back,tomorrow]
[@LloydDavis,Top,of,my,new,year,'s,resolution,list,be,to,see,more,of,you,and,@solobassteve,.]
[:,-rrb-]
[@alexknight,I,just,see,.]
[I,try,to,cancel,the,first,one,but,it,do,not,work,:-rrb-,haha]
[@zbussey,-_-,enough,with,the,tofu,!]
[okay,so,will,u,get,I,some,:,-rrb-]
[@tommcfly,i,love,wedding,:d,hahaha,!]
[Inglorious,Bastards,pretty,good,.]
[Time,for,a,little,booty,shake,and,trainwreck,chasing,.]
[:,-rrb-]
[-lrb-,:,last,update,of,the,night,.]
[busy,day,tomorrow,-,but,I,would,be,lie,if,I,say,I,be,not,excite,.]
[Goodnight,Twitter,,,tweet,dream,.]
[@karinkydink,oh,.]
[no,,,I,have,not,see,it,.]
[we,be,not,ashamed,of,*,ourselves,.]
[*,:,d]
[@mheadcase,thanks,:-rrb-,-rrb-,-rrb-,I,be,gon,na,enjoy,today]
[get,pass,!!!]
[woooohhhoooo,-lrb-,:,gettt,hair,do,+,then,pack,for,atlantic,city,-lrb-,:]
[@JkGirlAllTheWay,well,,,i,just,think,it,be,cool,that,we,both,love,nkotb,,,etc,!]
[we,have,stuff,in,common,!]
[:,-rrb-]
[@kieronrichardso,you,dont,look,nothing,like,joe,lol,hope,you,ok,:,-rrb-]
[@millajovovich,lol,-,well,thats,good,news,:d,how,far,into,re,be,you,now,?]
[x]
